# linhas começadas com '#' sao ignoradas
# linhas em branco sao ignoradas
# 'O' eh o ponto de chegada
# '*' eh o ponto de saida
# '|' e "_" bloqueiam a passagem
____________
|          |
|        O |
|______    |
|     |    |
|          |
| _________|
|          |
|          |
|        * |
|          |
|__________|

# lalala
# lalala
# lalala
# lalala
